Ok
No
No
No
No
No
No
No
No
No
No
No
No
No
No
No
No
No
No
No
No
No
No
No
No
No
Ok
Ok
Ok
Ok
Ok
Ok
Ok
Ok
Ok
Ok
Ok
Ok
Ok
Ok
Ok
Ok
Ok
Ok
Ok
Ok
Probably
Probably
Probably
Probably
No
Probably
Probably
Probably
Probably
No
Probably
Probably
Probably
Probably
No
Probably
Probably
No
Probably
Probably
Probably
Probably
No
Probably
Probably
